
SPOTDOMINC,05/04/2019,SA3011593,,1,0,KGTOMATOGOLIVEAT,,2,4.8552,05/04/2019,,,204 Tolosa Street,GLENORCHY    TAS,Blank,01,NORTH,"",N,N,N,,Y,2SG,N,
SPOTDOMINC,05/04/2019,SA3011593,,2,0,EALETTUCEICEBERG,,3,4.0416,05/04/2019,,,204 Tolosa Street,GLENORCHY    TAS,Blank,01,NORTH,"",N,N,N,,Y,2SG,N,
SPOTDOMINC,05/04/2019,SA3011593,,3,0,EACUCUMBER,,2,1.5424,05/04/2019,,,204 Tolosa Street,GLENORCHY    TAS,Blank,01,NORTH,"",N,N,N,,Y,2SG,N,
SPOTDOMINC,05/04/2019,SA3011593,,4,0,KGAPPLERED,,1,4.0323,05/04/2019,,,204 Tolosa Street,GLENORCHY    TAS,Blank,01,NORTH,"",N,N,N,,Y,2SG,N,
ZAMBREROSA,05/04/2019,SA3011653,SA3011653,5,1,EALETTUCECOSTWIN,EA,10,3,05/04/2019,Friday pm,Friday pm,174 SANDY BAY ROAD,,Blank,01,PM,"mail Sent",N,Y,N,0,Y,2SO,Y,
CASHSTEVEO,05/04/2019,SA3011654,SA3011654,6,1,EADILL,EA,1,3.1538,05/04/2019,Test,Test,C/- SOUTHERN FOODSERVICE,,Blank,01,ZZ,"mail Sent",N,Y,N,0,Y,2SO,N,
CASHSTEVEO,05/04/2019,SA3011654,SA3011654,7,1,EATHYME,EA,1,3.14,05/04/2019,Test,Test,C/- SOUTHERN FOODSERVICE,,Blank,01,ZZ,"mail Sent",N,Y,N,0,Y,2SO,N,
CASHSTEVEO,05/04/2019,SA3011654,SA3011654,8,1,EALETTUCECOSTWIN,EA,1,3.2,05/04/2019,Test,Test,C/- SOUTHERN FOODSERVICE,,Blank,01,ZZ,"mail Sent",N,Y,N,0,Y,2SO,Y,
CASHSTEVEO,05/04/2019,SA3011655,SA3011655,9,1,CHUXHD,ROLL,1,25,05/04/2019,Test,Test,C/- SOUTHERN FOODSERVICE,,Blank,01,ZZ,"mail Sent",N,Y,N,0,Y,2SO,Y,
CASHSTEVEO,05/04/2019,SA3011655,SA3011655,10,1,ALPENBLEND,PKT,1,20.93,05/04/2019,Test,Test,C/- SOUTHERN FOODSERVICE,,Blank,01,ZZ,"mail Sent",N,Y,N,0,Y,2SO,N,
CASHSTEVEO,05/04/2019,SA3011656,SA3011656,11,1,KGSNOWPEA,KG,1,26.15,05/04/2019,Test,Test,C/- SOUTHERN FOODSERVICE,,Blank,01,ZZ,"mail Sent",N,Y,N,0,Y,2SO,N,
CASHSTEVEO,05/04/2019,SA3011656,SA3011656,12,1,NUGGETTEMP,EACH,1,12.2667,05/04/2019,Test,Test,C/- SOUTHERN FOODSERVICE,,Blank,01,ZZ,"mail Sent",N,Y,N,0,Y,2SO,N,
CASHSTEVEO,05/04/2019,SA3011657,SA3011657,13,1,PVPOTATOPEELED,KG,1,2,05/04/2019,Test,Test,C/- SOUTHERN FOODSERVICE,,Blank,01,ZZ,"mail Sent",N,Y,N,0,Y,2SO,N,
CASHSTEVEO,05/04/2019,SA3011658,SA3011658,14,1,KGSNOWPEA,KG,1,26.15,05/04/2019,,,C/- SOUTHERN FOODSERVICE,,Blank,01,ZZ,"mail Sent",N,N,N,0,Y,2SO,N,
CASHSTEVEO,05/04/2019,SA3011658,SA3011658,15,1,NUGGETTEMP,EACH,1,12.2667,05/04/2019,,,C/- SOUTHERN FOODSERVICE,,Blank,01,ZZ,"mail Sent",N,N,N,0,Y,2SO,N,
CASHSTEVEO,05/04/2019,SA3011658,SA3011658,16,1,PVPOTATOPEELED,KG,1,2,05/04/2019,,,C/- SOUTHERN FOODSERVICE,,Blank,01,ZZ,"mail Sent",N,N,N,0,Y,2SO,N,
CASHSTEVEO,05/04/2019,SA3011659,test,17,1,KGSNOWPEA,KG,1,26.15,06/04/2019,Test,Test,C/- SOUTHERN FOODSERVICE,,Blank,01,ZZ,"mail Sent",N,Y,N,,Y,2SO,N,
MURES,05/04/2019,SA3011660,SA3011660,18,0,KGCAPSRED,KG,10,3.9,06/04/2019,,,VICTORIA DOCK,,Blank,01,,"mail Sent",N,N,N,,Y,2SO,Y,
MURES,05/04/2019,SA3011660,SA3011660,19,0,KGLEMONAUST,KG,30,5.1,06/04/2019,,,VICTORIA DOCK,,Blank,01,,"mail Sent",N,N,N,,Y,2SO,Y,
MURES,05/04/2019,SA3011660,SA3011660,20,0,EAPEASHOOTS150GM,EA,1,3.73,06/04/2019,,,VICTORIA DOCK,,Blank,01,,"mail Sent",N,N,N,,Y,2SO,N,
MURES,05/04/2019,SA3011660,SA3011660,21,0,EAPARSLEY,EA,40,1.9,06/04/2019,,,VICTORIA DOCK,,Blank,01,,"mail Sent",N,N,N,,Y,2SO,Y,
MURES,05/04/2019,SA3011660,SA3011660,22,0,EABASIL,EA,3,2.5,06/04/2019,,,VICTORIA DOCK,,Blank,01,,"mail Sent",N,N,N,,Y,2SO,Y,
MURES,05/04/2019,SA3011660,SA3011660,23,0,EAMINT,EA,2,2.4,06/04/2019,,,VICTORIA DOCK,,Blank,01,,"mail Sent",N,N,N,,Y,2SO,Y,
MURES,05/04/2019,SA3011660,SA3011660,24,0,KGMUSHROOMPREM,KG,5,9,06/04/2019,,,VICTORIA DOCK,,Blank,01,,"mail Sent",N,N,N,,Y,2SO,Y,
MURES,05/04/2019,SA3011660,SA3011660,25,0,EAROCKMELON,EA,1,3.2,06/04/2019,,,VICTORIA DOCK,,Blank,01,,"mail Sent",N,N,N,,Y,2SO,Y,
MURES,05/04/2019,SA3011660,SA3011660,26,0,EAPINEAPPLTOPLES,EA,1,4.3,06/04/2019,,,VICTORIA DOCK,,Blank,01,,"mail Sent",N,N,N,,Y,2SO,Y,
MURES,05/04/2019,SA3011660,SA3011660,27,0,EAHONEYDEW EACH,EA,1,3.2,06/04/2019,,,VICTORIA DOCK,,Blank,01,,"mail Sent",N,N,N,,Y,2SO,Y,
TARRALEAH,05/04/2019,SA3011661,SA3011661,28,0,EAPEASHOOTS150GM,EA,1,4.31,08/04/2019,,,5 Oldina Drive, Tarraleah,Tarraleah 7140,Blank,01,,"mail Sent",N,N,N,,Y,2SG,N,
TARRALEAH,05/04/2019,SA3011661,SA3011661,29,0,EASTRAWBERRIES,EA,1,4.4839,08/04/2019,,,5 Oldina Drive, Tarraleah,Tarraleah 7140,Blank,01,,"mail Sent",N,N,N,,Y,2SG,N,
TARRALEAH,05/04/2019,SA3011661,SA3011661,30,0,CREAM,EACH,1,26.95,08/04/2019,,,5 Oldina Drive, Tarraleah,Tarraleah 7140,Blank,01,,"mail Sent",N,N,N,,Y,2SG,Y,
TARRALEAH,05/04/2019,SA3011661,SA3011661,31,0,BUTTERUSALTWSTAR,EACH,3,24.61,08/04/2019,,,5 Oldina Drive, Tarraleah,Tarraleah 7140,Blank,01,,"mail Sent",N,N,N,,Y,2SG,N,
TARRALEAH,05/04/2019,SA3011661,SA3011661,32,0,EARADISH,EA,2,2.9231,08/04/2019,,,5 Oldina Drive, Tarraleah,Tarraleah 7140,Blank,01,,"mail Sent",N,N,N,,Y,2SG,N,
TARRALEAH,05/04/2019,SA3011661,SA3011661,33,0,KGDAIKON,KG,1,6.0408,08/04/2019,,,5 Oldina Drive, Tarraleah,Tarraleah 7140,Blank,01,,"mail Sent",N,N,N,,Y,2SG,N,
TARRALEAH,05/04/2019,SA3011661,SA3011661,34,0,KGBEANSTINGLESS,KG,1,6.9231,08/04/2019,,,5 Oldina Drive, Tarraleah,Tarraleah 7140,Blank,01,,"mail Sent",N,N,N,,Y,2SG,N,
TARRALEAH,05/04/2019,SA3011661,SA3011661,35,0,KGPOTATOBINCTAIL,KG,2,3.0769,08/04/2019,,,5 Oldina Drive, Tarraleah,Tarraleah 7140,Blank,01,,"mail Sent",N,N,N,,Y,2SG,N,
TARRALEAH,05/04/2019,SA3011661,SA3011661,36,0,ALMONDMEAL,PKT,2,24.92,08/04/2019,,,5 Oldina Drive, Tarraleah,Tarraleah 7140,Blank,01,,"mail Sent",N,N,N,,Y,2SG,N,
TARRALEAH,05/04/2019,SA3011661,SA3011661,37,0,KIKSOYLESS600,BOTTL,1,6.98,08/04/2019,,,5 Oldina Drive, Tarraleah,Tarraleah 7140,Blank,01,,"mail Sent",N,N,N,,Y,2SG,N,
TARRALEAH,05/04/2019,SA3011661,SA3011661,38,0,VINEGARSHERRY,EACH,1,42.5,08/04/2019,,,5 Oldina Drive, Tarraleah,Tarraleah 7140,Blank,01,,"mail Sent",N,N,N,,Y,2SG,N,
TARRALEAH,05/04/2019,SA3011661,SA3011661,39,0,OILSESAME2LT,EACH,1,22.08,08/04/2019,,,5 Oldina Drive, Tarraleah,Tarraleah 7140,Blank,01,,"mail Sent",N,N,N,,Y,2SG,N,
TARRALEAH,05/04/2019,SA3011661,SA3011661,40,0,SOYKIKKOGLUTEN,EACH,1,13.37,08/04/2019,,,5 Oldina Drive, Tarraleah,Tarraleah 7140,Blank,01,,"mail Sent",N,N,N,,Y,2SG,N,
TARRALEAH,05/04/2019,SA3011661,SA3011661,41,0,SOYSAUCE,EACH,2,5.84,08/04/2019,,,5 Oldina Drive, Tarraleah,Tarraleah 7140,Blank,01,,"mail Sent",N,N,N,,Y,2SG,N,
CASHSTEVEO,05/04/2019,SA3011662,SA3011662,42,1,NUGGETTEMP,EACH,1,12.2667,08/04/2019,Test,Test,C/- SOUTHERN FOODSERVICE,,Blank,01,ZZ,"mail Sent",N,Y,N,0,Y,2SO,N,
MURES,05/04/2019,SA3011663,SA3011663,43,0,FLSELF12.5,EACH,4,15.2,06/04/2019,,,VICTORIA DOCK,,Blank,01,,"mail Sent",N,N,N,,Y,2SO,Y,
MURES,05/04/2019,SA3011663,SA3011663,44,0,EGGSLARGE15DOZ,CTN,2,39,06/04/2019,,,VICTORIA DOCK,,Blank,01,,"mail Sent",N,N,N,,Y,2SO,Y,
MURES,05/04/2019,SA3011663,SA3011663,45,0,CHHALLOUMI2KG,UNIT,1,24.5,06/04/2019,,,VICTORIA DOCK,,Blank,01,,"mail Sent",N,N,N,,Y,2SO,Y,
MURES,05/04/2019,SA3011663,SA3011663,46,0,BUTTERUSALTWSTAR,EACH,4,16.9,06/04/2019,,,VICTORIA DOCK,,Blank,01,,"mail Sent",N,N,N,,Y,2SO,Y,
MURES,05/04/2019,SA3011663,SA3011663,47,0,CHPARMSHAVED1KG,BAG,4,23.5,06/04/2019,,,VICTORIA DOCK,,Blank,01,,"mail Sent",N,N,N,,Y,2SO,Y,
MURES,05/04/2019,SA3011663,SA3011663,48,0,BACONRIND,EACH,6,24,06/04/2019,,,VICTORIA DOCK,,Blank,01,,"mail Sent",N,N,N,,Y,2SO,Y,
MURES,05/04/2019,SA3011663,SA3011663,49,0,SLICEDSALAMIMILD,EACH,1,31,06/04/2019,,,VICTORIA DOCK,,Blank,01,,"mail Sent",N,N,N,,Y,2SO,N,
MURES,05/04/2019,SA3011663,SA3011663,50,0,PEPPERGRINDER,UNIT,60,4.5,06/04/2019,,,VICTORIA DOCK,,Blank,01,,"mail Sent",N,N,N,,Y,2SO,Y,
MCLOUGHLIN,05/04/2019,SA3011664,SA3011664,51,1,ECHIPS13CLA,EACH,2,9.28333333333333,08/04/2019,Test test ,Test test ,18 MANRESA COURT,SANDY BAY,Blank,01,CITY,"mail Sent",N,Y,N,0,Y,2JM,Y,
BEARWITHME,05/04/2019,SA3011665,SA3011665,52,1,SPCHIPSSHOESTRIN,EACH,4,4.6,05/04/2019,Deliver Saturday ,Deliver Saturday ,399 MACQUARIE STREET,,Blank,01,CITY,"mail Sent",N,Y,N,0,Y,2AH,Y,
BEARWITHME,05/04/2019,SA3011665,SA3011665,53,1,FLBAKERSPERFECTI,BAG,1,13.95,05/04/2019,Deliver Saturday ,Deliver Saturday ,399 MACQUARIE STREET,,Blank,01,CITY,"mail Sent",N,Y,N,0,Y,2AH,Y,
BEARWITHME,05/04/2019,SA3011666,SA3011666,54,1,CSAVOCADO5KG,TRAY,2,45,06/04/2019,Deliver Saturday ,Deliver Saturday ,399 MACQUARIE STREET,,Blank,01,CITY,"mail Sent",N,Y,N,,Y,2AH,Y,
BEARWITHME,05/04/2019,SA3011666,SA3011666,55,1,KGGARLICPEELED,KG,1,7,06/04/2019,Deliver Saturday ,Deliver Saturday ,399 MACQUARIE STREET,,Blank,01,CITY,"mail Sent",N,Y,N,,Y,2AH,Y,
BEARWITHME,05/04/2019,SA3011666,SA3011666,56,1,EACABBAGES,EACH,1,4.5,06/04/2019,Deliver Saturday ,Deliver Saturday ,399 MACQUARIE STREET,,Blank,01,CITY,"mail Sent",N,Y,N,,Y,2AH,Y,
BEARWITHME,05/04/2019,SA3011666,SA3011666,57,1,EACORIANDER,EA,4,2.9,06/04/2019,Deliver Saturday ,Deliver Saturday ,399 MACQUARIE STREET,,Blank,01,CITY,"mail Sent",N,Y,N,,Y,2AH,Y,
BEARWITHME,05/04/2019,SA3011666,SA3011666,58,1,EADILL,EA,1,2.9286,06/04/2019,Deliver Saturday ,Deliver Saturday ,399 MACQUARIE STREET,,Blank,01,CITY,"mail Sent",N,Y,N,,Y,2AH,N,
BEARWITHME,05/04/2019,SA3011666,SA3011666,59,1,KGLIMES,KG,6,8,06/04/2019,Deliver Saturday ,Deliver Saturday ,399 MACQUARIE STREET,,Blank,01,CITY,"mail Sent",N,Y,N,,Y,2AH,Y,
BEARWITHME,05/04/2019,SA3011666,SA3011666,60,1,EASTRAWBERRIES,EA,2,4.5,06/04/2019,Deliver Saturday ,Deliver Saturday ,399 MACQUARIE STREET,,Blank,01,CITY,"mail Sent",N,Y,N,,Y,2AH,Y,
BEARWITHME,05/04/2019,SA3011666,SA3011666,61,1,KGEGGPLANT,KG,3,3.5405,06/04/2019,Deliver Saturday ,Deliver Saturday ,399 MACQUARIE STREET,,Blank,01,CITY,"mail Sent",N,Y,N,,Y,2AH,N,
BEARWITHME,05/04/2019,SA3011666,SA3011666,62,1,KGZUCCHINI,KG,3,4.25,06/04/2019,Deliver Saturday ,Deliver Saturday ,399 MACQUARIE STREET,,Blank,01,CITY,"mail Sent",N,Y,N,,Y,2AH,Y,
BEST,05/04/2019,SA3011667,SA3011667,63,1,EACORNCOB,EA,4,1.45,05/04/2019,Deliver Saturday ,Deliver Saturday ,156 BATHURST STREET,,Blank,01,CITY,"mail Sent",N,Y,N,0,Y,2AH,Y,
BEST,05/04/2019,SA3011667,SA3011667,64,1,KGPOTATOBINCTAIL,KG,15,2.95,05/04/2019,Deliver Saturday ,Deliver Saturday ,156 BATHURST STREET,,Blank,01,CITY,"mail Sent",N,Y,N,0,Y,2AH,Y,
BEST,05/04/2019,SA3011667,SA3011667,65,1,KGMUSHROOMPREM,KG,12,11,05/04/2019,Deliver Saturday ,Deliver Saturday ,156 BATHURST STREET,,Blank,01,CITY,"mail Sent",N,Y,N,0,Y,2AH,Y,
BEST,05/04/2019,SA3011667,SA3011667,66,1,EACAULIFLOWER,EA,2,5,05/04/2019,Deliver Saturday ,Deliver Saturday ,156 BATHURST STREET,,Blank,01,CITY,"mail Sent",N,Y,N,0,Y,2AH,Y,
BEST,05/04/2019,SA3011667,SA3011667,67,1,KGONIONLARGEKG,KG,10,0.9231,05/04/2019,Deliver Saturday ,Deliver Saturday ,156 BATHURST STREET,,Blank,01,CITY,"mail Sent",N,Y,N,0,Y,2AH,Y,
BEST,05/04/2019,SA3011667,SA3011667,68,1,EATOMATOCHERRYPU,EA,6,3.8,05/04/2019,Deliver Saturday ,Deliver Saturday ,156 BATHURST STREET,,Blank,01,CITY,"mail Sent",N,Y,N,0,Y,2AH,Y,
BEST,05/04/2019,SA3011667,SA3011667,69,1,EABASIL,EA,2,3.3,05/04/2019,Deliver Saturday ,Deliver Saturday ,156 BATHURST STREET,,Blank,01,CITY,"mail Sent",N,Y,N,0,Y,2AH,Y,
BEST,05/04/2019,SA3011667,SA3011667,70,1,EACORIANDER,EA,2,3.5,05/04/2019,Deliver Saturday ,Deliver Saturday ,156 BATHURST STREET,,Blank,01,CITY,"mail Sent",N,Y,N,0,Y,2AH,Y,
BEST,05/04/2019,SA3011667,SA3011667,71,1,EAPARSLEYCONT,EA,2,3,05/04/2019,Deliver Saturday ,Deliver Saturday ,156 BATHURST STREET,,Blank,01,CITY,"mail Sent",N,Y,N,0,Y,2AH,Y,
BEST,05/04/2019,SA3011667,SA3011667,72,1,EAPARSLEY,EA,1,2.5,05/04/2019,Deliver Saturday ,Deliver Saturday ,156 BATHURST STREET,,Blank,01,CITY,"mail Sent",N,Y,N,0,Y,2AH,Y,
BEST,05/04/2019,SA3011667,SA3011667,73,1,CSLETTUCEMESCLUN,CASE,1,18.5,05/04/2019,Deliver Saturday ,Deliver Saturday ,156 BATHURST STREET,,Blank,01,CITY,"mail Sent",N,Y,N,0,Y,2AH,Y,
BEST,05/04/2019,SA3011667,SA3011667,74,1,EAROCKMELON,EA,6,6,05/04/2019,Deliver Saturday ,Deliver Saturday ,156 BATHURST STREET,,Blank,01,CITY,"mail Sent",N,Y,N,0,Y,2AH,Y,
BEST,05/04/2019,SA3011667,SA3011667,75,1,KGWATERMELON,KG,20,2.7,05/04/2019,Deliver Saturday ,Deliver Saturday ,156 BATHURST STREET,,Blank,01,CITY,"mail Sent",N,Y,N,0,Y,2AH,Y,
FISHFRENZY,05/04/2019,SA3011668,SA3011668,76,1,DORYSMOOTH24OZ5K,CTN,4,66.77,05/04/2019,Add on deliver Saturday ,Add on deliver Saturday ,GPO BOX 272C,,Blank,01,MURES,"mail Sent",N,Y,N,0,Y,2AH,Y,
PEARL,05/04/2019,SA3011669,SA3011669,77,1,OILCOTTONSEED,EACH,1,48,05/04/2019,,,MURES LOWER DECK P/L,VICTORIA DOCK,Blank,01,MURES,"mail Sent",N,N,N,0,Y,2SO,Y,
PEARL,05/04/2019,SA3011669,SA3011669,78,1,EACUCUMBER,EA,3,2.5,05/04/2019,,,MURES LOWER DECK P/L,VICTORIA DOCK,Blank,01,MURES,"mail Sent",N,N,N,0,Y,2SO,Y,
PEARL,05/04/2019,SA3011669,SA3011669,79,1,EAFENNELLARGEEA,EA,2,1.9,05/04/2019,,,MURES LOWER DECK P/L,VICTORIA DOCK,Blank,01,MURES,"mail Sent",N,N,N,0,Y,2SO,Y,
