ORDER NO.,BOX NUMBER,CUSTOMER NAME,PHONE NUMBER,EMAIL,QTY,DELIVERY INSTRUCTIONS,POSTAL ADDRESS,ADDRESS 2,SUBURB,STATE,POSTCODE,Time_window_start,Time_window_end,Type,SAAVI Box No,SAAVI Box Total
SCF-HD-2713,SCF-HD-2713-1,Catherine Ball,61404160178,cathball1979@gmail.com,1,-,25 Anderson Street 2507,,Kangaroo Point,QLD,4169,08:00,17:00,Residential,1,3
SCF-HD-2713,SCF-HD-2713-2,Catherine Ball,61404160178,cathball1979@gmail.com,1,-,25 Anderson Street 2507,,Kangaroo Point,QLD,4169,08:00,17:00,Residential,2,3
SCF-HD-2713,SCF-HD-2713-3,Catherine Ball,61404160178,cathball1979@gmail.com,1,-,25 Anderson Street 2507,,Kangaroo Point,QLD,4169,08:00,17:00,Residential,3,3
SCF-HD-2988,SCF-HD-2988-1,Lisa Powell,61405342991,ellewarwick@hotmail.com,1,We are townhouse at top of driveway of left. Please leave undercover next to front door. I am usually here in Tuesday’s so feel free to give me a knock! -,3/49 Princess Street,,Bulimba,QLD,4171,08:00,17:00,Residential,1,3
SCF-HD-2988,SCF-HD-2988-2,Lisa Powell,61405342991,ellewarwick@hotmail.com,1,We are townhouse at top of driveway of left. Please leave undercover next to front door. I am usually here in Tuesday’s so feel free to give me a knock! -,3/49 Princess Street,,Bulimba,QLD,4171,08:00,17:00,Residential,2,3
SCF-HD-2988,SCF-HD-2988-3,Lisa Powell,61405342991,ellewarwick@hotmail.com,1,We are townhouse at top of driveway of left. Please leave undercover next to front door. I am usually here in Tuesday’s so feel free to give me a knock! -,3/49 Princess Street,,Bulimba,QLD,4171,08:00,17:00,Residential,3,3
SCF-HD-2991,SCF-HD-2991-1,Chantel Tse,61403200320,chanteltse@gmail.com,1,-,78 High Street,,Mount Gravatt,QLD,4122,08:00,17:00,Residential,1,3
SCF-HD-2991,SCF-HD-2991-2,Chantel Tse,61403200320,chanteltse@gmail.com,1,-,78 High Street,,Mount Gravatt,QLD,4122,08:00,17:00,Residential,2,3
SCF-HD-2991,SCF-HD-2991-3,Chantel Tse,61403200320,chanteltse@gmail.com,1,-,78 High Street,,Mount Gravatt,QLD,4122,08:00,17:00,Residential,3,3
SCF-HD-3042,SCF-HD-3042-1,Louisa Coglan,61430111701,louisa.coglan@yahoo.com.au,1,-,75 Beauvardia St,,Cannon Hill,QLD,4170,08:00,17:00,Residential,1,3
SCF-HD-3042,SCF-HD-3042-2,Louisa Coglan,61430111701,louisa.coglan@yahoo.com.au,1,-,75 Beauvardia St,,Cannon Hill,QLD,4170,08:00,17:00,Residential,2,3
SCF-HD-3042,SCF-HD-3042-3,Louisa Coglan,61430111701,louisa.coglan@yahoo.com.au,1,-,75 Beauvardia St,,Cannon Hill,QLD,4170,08:00,17:00,Residential,3,3
SCF-HD-3073,SCF-HD-3073-1,Sally Ringuet,61403200480,tonyandsal_ringuet@hotmail.com,1,Please leave near upstairs front door. Thanks kindly. Love love your produce and service.-,39 Kivas Street,,Tarragindi,QLD,4121,08:00,17:00,Residential,1,3
SCF-HD-3073,SCF-HD-3073-2,Sally Ringuet,61403200480,tonyandsal_ringuet@hotmail.com,1,Please leave near upstairs front door. Thanks kindly. Love love your produce and service.-,39 Kivas Street,,Tarragindi,QLD,4121,08:00,17:00,Residential,2,3
SCF-HD-3073,SCF-HD-3073-3,Sally Ringuet,61403200480,tonyandsal_ringuet@hotmail.com,1,Please leave near upstairs front door. Thanks kindly. Love love your produce and service.-,39 Kivas Street,,Tarragindi,QLD,4121,08:00,17:00,Residential,3,3
SCF-HD-3077,SCF-HD-3077-1,Kate Parry,61414450547,kate.parry83@outlook.com,1,-,94 Peach St,,Greenslopes,QLD,4120,08:00,17:00,Residential,1,3
SCF-HD-3077,SCF-HD-3077-2,Kate Parry,61414450547,kate.parry83@outlook.com,1,-,94 Peach St,,Greenslopes,QLD,4120,08:00,17:00,Residential,2,3
SCF-HD-3077,SCF-HD-3077-3,Kate Parry,61414450547,kate.parry83@outlook.com,1,-,94 Peach St,,Greenslopes,QLD,4120,08:00,17:00,Residential,3,3
SCF-HD-3108,SCF-HD-3108-1,Anne McMahon,61408481180,anne.mcmahon@tpg.com.au,1,-,24 School Rd/corner Patrick St,,Yeronga,QLD,4104,08:00,17:00,Residential,1,2
SCF-HD-3108,SCF-HD-3108-2,Anne McMahon,61408481180,anne.mcmahon@tpg.com.au,1,-,24 School Rd/corner Patrick St,,Yeronga,QLD,4104,08:00,17:00,Residential,2,2
SCF-HD-3155,SCF-HD-3155-1,Lani Hepple,61403831583,lanimpauli@gmail.com,1,-,72 Lockrose Street,,Mitchelton,QLD,4053,08:00,17:00,Residential,1,3
SCF-HD-3155,SCF-HD-3155-2,Lani Hepple,61403831583,lanimpauli@gmail.com,1,-,72 Lockrose Street,,Mitchelton,QLD,4053,08:00,17:00,Residential,2,3
SCF-HD-3155,SCF-HD-3155-3,Lani Hepple,61403831583,lanimpauli@gmail.com,1,-,72 Lockrose Street,,Mitchelton,QLD,4053,08:00,17:00,Residential,3,3
SCF-HD-3171,SCF-HD-3171-1,Emma McGregor,61402622783,elmcgregor@hotmail.com,1,-,31 St Andrew Place,,WISHART,QLD,4122,08:00,17:00,Residential,1,3
SCF-HD-3171,SCF-HD-3171-2,Emma McGregor,61402622783,elmcgregor@hotmail.com,1,-,31 St Andrew Place,,WISHART,QLD,4122,08:00,17:00,Residential,2,3
SCF-HD-3171,SCF-HD-3171-3,Emma McGregor,61402622783,elmcgregor@hotmail.com,1,-,31 St Andrew Place,,WISHART,QLD,4122,08:00,17:00,Residential,3,3
SCF-HD-3189,SCF-HD-3189-1,Jessica Kilroy,61424266399,jess@theecobutchertray.com.au,1,-,36 Middle Street,,Highgate Hill,QLD,4101,08:00,17:00,Residential,1,2
SCF-HD-3189,SCF-HD-3189-2,Jessica Kilroy,61424266399,jess@theecobutchertray.com.au,1,-,36 Middle Street,,Highgate Hill,QLD,4101,08:00,17:00,Residential,2,2
SCF-HD-3193,SCF-HD-3193-1,Dana Longton,61402375002,dana.longton@ioof.com.au,1,-,1/58 Clarendon Street,,East Brisbane,QLD,4169,08:00,17:00,Residential,1,3
SCF-HD-3193,SCF-HD-3193-2,Dana Longton,61402375002,dana.longton@ioof.com.au,1,-,1/58 Clarendon Street,,East Brisbane,QLD,4169,08:00,17:00,Residential,2,3
SCF-HD-3193,SCF-HD-3193-3,Dana Longton,61402375002,dana.longton@ioof.com.au,1,-,1/58 Clarendon Street,,East Brisbane,QLD,4169,08:00,17:00,Residential,3,3
SCF-HD-3194,SCF-HD-3194-1,Brooke Murphy,61412013365,brooke@vueinteriors.com.au,1,-,54 Armstrong Road,,Cannon Hill,QLD,4170,08:00,17:00,Residential,1,1
SCF-HD-3197,SCF-HD-3197-1,HELEN BEYLOT,61429015184,beylot5@bigpond.com,1,-,15 ILLIDGE ST,,Coorparoo,QLD,4151,08:00,17:00,Residential,1,1
SCF-HD-3200,SCF-HD-3200-1,Sarah DeBono,61409418062,sarahdebono2000@yahoo.com.au,1,-,83 Agnew Street,,Norman Park,QLD,4170,08:00,17:00,Residential,1,2
SCF-HD-3200,SCF-HD-3200-2,Sarah DeBono,61409418062,sarahdebono2000@yahoo.com.au,1,-,83 Agnew Street,,Norman Park,QLD,4170,08:00,17:00,Residential,2,2
SCF-HD-3203,SCF-HD-3203-1,Claudia Hoch,61468514140,claudia_rivallee@hotmail.com,1,-,77 Jane street 406,,West end,QLD,4101,08:00,17:00,Residential,1,2
SCF-HD-3203,SCF-HD-3203-2,Claudia Hoch,61468514140,claudia_rivallee@hotmail.com,1,-,77 Jane street 406,,West end,QLD,4101,08:00,17:00,Residential,2,2
SCF-HD-3204,SCF-HD-3204-1,Aoife Geraghty,61413644025,aoife.geraghty90@gmail.com,1,-,5/35 Jamieson Street,,Bulimba,QLD,4171,08:00,17:00,Residential,1,3
SCF-HD-3204,SCF-HD-3204-2,Aoife Geraghty,61413644025,aoife.geraghty90@gmail.com,1,-,5/35 Jamieson Street,,Bulimba,QLD,4171,08:00,17:00,Residential,2,3
SCF-HD-3204,SCF-HD-3204-3,Aoife Geraghty,61413644025,aoife.geraghty90@gmail.com,1,-,5/35 Jamieson Street,,Bulimba,QLD,4171,08:00,17:00,Residential,3,3
SCF-HD-3209,SCF-HD-3209-1,Winson Leung,61408203300,winsonleung@hotmail.com,1,-,19 Waterline Crescent ,,Bulimba,QLD,4171,08:00,17:00,Residential,1,1
SCF-HD-3214,SCF-HD-3214-1,Heather Zwicker,61448008551,zwickerhzwicker@gmail.com,1,-,U 602 / 51 Ferry Road,,West End,QLD,4101,08:00,17:00,Residential,1,3
SCF-HD-3214,SCF-HD-3214-2,Heather Zwicker,61448008551,zwickerhzwicker@gmail.com,1,-,U 602 / 51 Ferry Road,,West End,QLD,4101,08:00,17:00,Residential,2,3
SCF-HD-3214,SCF-HD-3214-3,Heather Zwicker,61448008551,zwickerhzwicker@gmail.com,1,-,U 602 / 51 Ferry Road,,West End,QLD,4101,08:00,17:00,Residential,3,3
SCF-HD-3223,SCF-HD-3223-1,ALEX HAMBURG,61490483149,ALEXANDRIAHAMBURG@GMAIL.COM,1,-,17 Orcades Road,,Yeronga,QLD,4104,08:00,17:00,Residential,1,2
SCF-HD-3223,SCF-HD-3223-2,ALEX HAMBURG,61490483149,ALEXANDRIAHAMBURG@GMAIL.COM,1,-,17 Orcades Road,,Yeronga,QLD,4104,08:00,17:00,Residential,2,2
SCF-HD-3227,SCF-HD-3227-1,Kathryn Rodney,61408543779,kat.rodney@bigpond.com,1,Hi! Please ring the doorbell thanks!  Also we have left a milk crate and your icepacks at the door for collection.  We will be home but sometimes are putting a baby to sleep or unable to answer the door. Please leave the milk to one side for collection it doesnt need the icepack or inclusion in the fruit box. Last time our fruit got a bit smushed by the weight of the milk.  Thanks for your help!-,55 Perth Street,,Camp Hill,QLD,4152,08:00,17:00,Residential,1,3
SCF-HD-3227,SCF-HD-3227-2,Kathryn Rodney,61408543779,kat.rodney@bigpond.com,1,Hi! Please ring the doorbell thanks!  Also we have left a milk crate and your icepacks at the door for collection.  We will be home but sometimes are putting a baby to sleep or unable to answer the door. Please leave the milk to one side for collection it doesnt need the icepack or inclusion in the fruit box. Last time our fruit got a bit smushed by the weight of the milk.  Thanks for your help!-,55 Perth Street,,Camp Hill,QLD,4152,08:00,17:00,Residential,2,3
SCF-HD-3227,SCF-HD-3227-3,Kathryn Rodney,61408543779,kat.rodney@bigpond.com,1,Hi! Please ring the doorbell thanks!  Also we have left a milk crate and your icepacks at the door for collection.  We will be home but sometimes are putting a baby to sleep or unable to answer the door. Please leave the milk to one side for collection it doesnt need the icepack or inclusion in the fruit box. Last time our fruit got a bit smushed by the weight of the milk.  Thanks for your help!-,55 Perth Street,,Camp Hill,QLD,4152,08:00,17:00,Residential,3,3
SCF-HD-3228,SCF-HD-3228-1,Asher Lindsay,61404874907,pajlindsay@bigpond.com,1,-,7 Military Close,,Annerley,QLD,4103,08:00,17:00,Residential,1,3
SCF-HD-3228,SCF-HD-3228-2,Asher Lindsay,61404874907,pajlindsay@bigpond.com,1,-,7 Military Close,,Annerley,QLD,4103,08:00,17:00,Residential,2,3
SCF-HD-3228,SCF-HD-3228-3,Asher Lindsay,61404874907,pajlindsay@bigpond.com,1,-,7 Military Close,,Annerley,QLD,4103,08:00,17:00,Residential,3,3
SCF-HD-3235,SCF-HD-3235-1,Paige Donaghy,61432860727,paige.donaghy@outlook.com,1,-,109 Gray Road Unit 4,,WEST END,QLD,4101,08:00,17:00,Residential,1,1
SCF-HD-3238,SCF-HD-3238-1,Paul Famularo,61434889201,paulfam99@gmail.com,1,-,5 Piccadilly Place,,Carindale,QLD,4152,08:00,17:00,Residential,1,3
SCF-HD-3238,SCF-HD-3238-2,Paul Famularo,61434889201,paulfam99@gmail.com,1,-,5 Piccadilly Place,,Carindale,QLD,4152,08:00,17:00,Residential,2,3
SCF-HD-3238,SCF-HD-3238-3,Paul Famularo,61434889201,paulfam99@gmail.com,1,-,5 Piccadilly Place,,Carindale,QLD,4152,08:00,17:00,Residential,3,3
SCF-HD-3241,SCF-HD-3241-1,Keeley Gilligan,61423651570,keeleyshae@hotmail.com,1,No cabbage please thanks-,18 Bidder St,,SALISBURY,QLD,4107,08:00,17:00,Residential,1,2
SCF-HD-3241,SCF-HD-3241-2,Keeley Gilligan,61423651570,keeleyshae@hotmail.com,1,No cabbage please thanks-,18 Bidder St,,SALISBURY,QLD,4107,08:00,17:00,Residential,2,2
SCF-HD-3245,SCF-HD-3245-1,Jaye Noanoa,61403047954,jayecramond@hotmail.com,1,Hi If we’re not home can you please leave on the table in the front area. You’ll need to come down the driveway.Thanks ?? -,58 Kneale Street,,Holland Park West,QLD,4121,08:00,17:00,Residential,1,2
SCF-HD-3245,SCF-HD-3245-2,Jaye Noanoa,61403047954,jayecramond@hotmail.com,1,Hi If we’re not home can you please leave on the table in the front area. You’ll need to come down the driveway.Thanks ?? -,58 Kneale Street,,Holland Park West,QLD,4121,08:00,17:00,Residential,2,2
SCF-HD-3248,SCF-HD-3248-1,Fiona Ryan,61408757045,ryanpiller@yahoo.com,1,-,17 Akala Street,,Camp Hill,QLD,4152,08:00,17:00,Residential,1,2
SCF-HD-3248,SCF-HD-3248-2,Fiona Ryan,61408757045,ryanpiller@yahoo.com,1,-,17 Akala Street,,Camp Hill,QLD,4152,08:00,17:00,Residential,2,2
