ORDER NO.,BOX NUMBER,CUSTOMER NAME,PHONE NUMBER,EMAIL,QTY,DELIVERY INSTRUCTIONS,POSTAL ADDRESS,ADDRESS 2,SUBURB,STATE,POSTCODE,Time_window_start,Time_window_end,Type
SCF-HD-2230,SCF-HD-2230-1,Sille raagmets ,61405422714,silleraagmets@hotmail.com,1,-,7 Pinecone Court,,Elanora,QLD,4221,08:00,17:00,Residential
SCF-HD-2291,SCF-HD-2291-1,Melissa Saunders,61405570772,liddy83@hotmail.com,1,-,2/463 Trees Road,,Tallebudgera,QLD,4228,08:00,17:00,Residential
SCF-HD-2291,SCF-HD-2291-2,Melissa Saunders,61405570772,liddy83@hotmail.com,1,-,2/463 Trees Road,,Tallebudgera,QLD,4228,08:00,17:00,Residential
SCF-HD-2291,SCF-HD-2291-3,Melissa Saunders,61405570772,liddy83@hotmail.com,1,-,2/463 Trees Road,,Tallebudgera,QLD,4228,08:00,17:00,Residential
SCF-HD-2324,SCF-HD-2324-1,Amanda Cavallaro,61433221211,theanxietywellnessqueen@hotmail.com,1,-,3 bowmore court,,Merrimac,QLD,4226,08:00,17:00,Residential
SCF-HD-2324,SCF-HD-2324-2,Amanda Cavallaro,61433221211,theanxietywellnessqueen@hotmail.com,1,-,3 bowmore court,,Merrimac,QLD,4226,08:00,17:00,Residential
SCF-HD-2324,SCF-HD-2324-3,Amanda Cavallaro,61433221211,theanxietywellnessqueen@hotmail.com,1,-,3 bowmore court,,Merrimac,QLD,4226,08:00,17:00,Residential
SCF-HD-2346,SCF-HD-2346-1,Gen,61410156921,viva_la_vieve@hotmail.com,1,-,33 Thirteenth Avenue,,Palm Beach,QLD,4221,08:00,17:00,Residential
SCF-HD-2346,SCF-HD-2346-2,Gen,61410156921,viva_la_vieve@hotmail.com,1,-,33 Thirteenth Avenue,,Palm Beach,QLD,4221,08:00,17:00,Residential
SCF-HD-2346,SCF-HD-2346-3,Gen,61410156921,viva_la_vieve@hotmail.com,1,-,33 Thirteenth Avenue,,Palm Beach,QLD,4221,08:00,17:00,Residential
SCF-HD-2439,SCF-HD-2439-1,Sasha Kennedy,61424173502,sdkennedyfam@outlook.com,1,-,43 Hedges Avenue,,Mermaid Beach,QLD,4218,08:00,17:00,Residential
SCF-HD-2439,SCF-HD-2439-2,Sasha Kennedy,61424173502,sdkennedyfam@outlook.com,1,-,43 Hedges Avenue,,Mermaid Beach,QLD,4218,08:00,17:00,Residential
SCF-HD-2439,SCF-HD-2439-3,Sasha Kennedy,61424173502,sdkennedyfam@outlook.com,1,-,43 Hedges Avenue,,Mermaid Beach,QLD,4218,08:00,17:00,Residential
SCF-HD-2439,SCF-HD-2439-4,Sasha Kennedy,61424173502,sdkennedyfam@outlook.com,1,-,43 Hedges Avenue,,Mermaid Beach,QLD,4218,08:00,17:00,Residential
SCF-HD-2439,SCF-HD-2439-5,Sasha Kennedy,61424173502,sdkennedyfam@outlook.com,1,-,43 Hedges Avenue,,Mermaid Beach,QLD,4218,08:00,17:00,Residential
SCF-HD-2442,SCF-HD-2442-1,Amanda,61430363708,hefferanhome@gmail.com,1,-,19 Buckingham Way,,Elanora,QLD,4221,08:00,17:00,Residential
SCF-HD-2442,SCF-HD-2442-2,Amanda,61430363708,hefferanhome@gmail.com,1,-,19 Buckingham Way,,Elanora,QLD,4221,08:00,17:00,Residential
SCF-HD-2442,SCF-HD-2442-3,Amanda,61430363708,hefferanhome@gmail.com,1,-,19 Buckingham Way,,Elanora,QLD,4221,08:00,17:00,Residential
SCF-HD-2458,SCF-HD-2458-1,Jean Brady,61448021479,jeanmbrady@yahoo.com,1,-,29 West St Unit 6,,Burleigh Heads,QLD,4220,08:00,17:00,Residential
SCF-HD-2470,SCF-HD-2470-1,Jess Coleman,61402774761,jessie@osteonichealth.com.au,1,Please leave with staff at the main Reception of our building - The Chancellor Apartments - as per normal. Thanks so much! Jess-,50/19 Lake Street,,Varsity Lakes,QLD,4227,08:00,17:00,Residential
SCF-HD-2471,SCF-HD-2471-1,Lee Fisher,61405325708,leefish77@hotmail.com,1,-,8 Rathbone Crt,,Mudgeeraba,QLD,4213,08:00,17:00,Residential
SCF-HD-2471,SCF-HD-2471-2,Lee Fisher,61405325708,leefish77@hotmail.com,1,-,8 Rathbone Crt,,Mudgeeraba,QLD,4213,08:00,17:00,Residential
SCF-HD-2471,SCF-HD-2471-3,Lee Fisher,61405325708,leefish77@hotmail.com,1,-,8 Rathbone Crt,,Mudgeeraba,QLD,4213,08:00,17:00,Residential
SCF-HD-2472,SCF-HD-2472-1,Sara massey,61438344839,sara.massey@outlook.com,1,-,45 Oceanic Drive,,Mermaid waters,QLD,4218,08:00,17:00,Residential
SCF-HD-2472,SCF-HD-2472-2,Sara massey,61438344839,sara.massey@outlook.com,1,-,45 Oceanic Drive,,Mermaid waters,QLD,4218,08:00,17:00,Residential
SCF-HD-2472,SCF-HD-2472-3,Sara massey,61438344839,sara.massey@outlook.com,1,-,45 Oceanic Drive,,Mermaid waters,QLD,4218,08:00,17:00,Residential
SCF-HD-2497,SCF-HD-2497-1,Tammy Tye,61432151109,tammytyemsc@gmail.com,1,Please call 0432151109 or 0424515352 so we can open garage door-,Unit 2 8 Blue Ridge Crescent,,Varsity Lakes,QLD,4227,08:00,17:00,Residential
SCF-HD-2497,SCF-HD-2497-2,Tammy Tye,61432151109,tammytyemsc@gmail.com,1,Please call 0432151109 or 0424515352 so we can open garage door-,Unit 2 8 Blue Ridge Crescent,,Varsity Lakes,QLD,4227,08:00,17:00,Residential
SCF-HD-2497,SCF-HD-2497-3,Tammy Tye,61432151109,tammytyemsc@gmail.com,1,Please call 0432151109 or 0424515352 so we can open garage door-,Unit 2 8 Blue Ridge Crescent,,Varsity Lakes,QLD,4227,08:00,17:00,Residential
SCF-HD-2511,SCF-HD-2511-1,Heather Hodgetts,61438132583,heather@youngonesearlylearning.com,1,Please call husband Chris when out the front as there is a security coded gate and he will come out thank you 0421865134 -,1363 Gold Coast Highway,,Palm Beach,QLD,4221,08:00,17:00,Residential
SCF-HD-2511,SCF-HD-2511-2,Heather Hodgetts,61438132583,heather@youngonesearlylearning.com,1,Please call husband Chris when out the front as there is a security coded gate and he will come out thank you 0421865134 -,1363 Gold Coast Highway,,Palm Beach,QLD,4221,08:00,17:00,Residential
SCF-HD-2511,SCF-HD-2511-3,Heather Hodgetts,61438132583,heather@youngonesearlylearning.com,1,Please call husband Chris when out the front as there is a security coded gate and he will come out thank you 0421865134 -,1363 Gold Coast Highway,,Palm Beach,QLD,4221,08:00,17:00,Residential
SCF-HD-2512,SCF-HD-2512-1,Claire Woods ,61421134870,claireshattock1@gmail.com,1,-,234 Worongary Road,,Worongary,QLD,4213,08:00,17:00,Residential
SCF-HD-2512,SCF-HD-2512-2,Claire Woods ,61421134870,claireshattock1@gmail.com,1,-,234 Worongary Road,,Worongary,QLD,4213,08:00,17:00,Residential
SCF-HD-2514,SCF-HD-2514-1,Bianca Miller,61430200222,bianca.miller222@gmail.com,1,-,19/14 Shrike court,,Burleigh Waters,QLD,4220,08:00,17:00,Residential
SCF-HD-2514,SCF-HD-2514-2,Bianca Miller,61430200222,bianca.miller222@gmail.com,1,-,19/14 Shrike court,,Burleigh Waters,QLD,4220,08:00,17:00,Residential
SCF-HD-2514,SCF-HD-2514-3,Bianca Miller,61430200222,bianca.miller222@gmail.com,1,-,19/14 Shrike court,,Burleigh Waters,QLD,4220,08:00,17:00,Residential
SCF-HD-2523,SCF-HD-2523-1,Tina Mackay,61408752092,baggy32@mac.com,1,-,3 Mooralla Street,,Tallai,QLD,4213,08:00,17:00,Residential
SCF-HD-2523,SCF-HD-2523-2,Tina Mackay,61408752092,baggy32@mac.com,1,-,3 Mooralla Street,,Tallai,QLD,4213,08:00,17:00,Residential
SCF-HD-2527,SCF-HD-2527-1,Monica Trewin,61402814233,cmtrewin@bigpond.com,1,-,211 Simpsons Rd,,Elanora,QLD,4221,08:00,17:00,Residential
SCF-HD-2527,SCF-HD-2527-2,Monica Trewin,61402814233,cmtrewin@bigpond.com,1,-,211 Simpsons Rd,,Elanora,QLD,4221,08:00,17:00,Residential
SCF-HD-2527,SCF-HD-2527-3,Monica Trewin,61402814233,cmtrewin@bigpond.com,1,-,211 Simpsons Rd,,Elanora,QLD,4221,08:00,17:00,Residential
SCF-HD-2546,SCF-HD-2546-1,Melanie Hattori,61435090510,melbray79@hotmail.com,1,-Please park on the street and not my driveway,54 Mapleton Circuit,,Varsity Lakes,QLD,4227,08:00,17:00,Residential
SCF-HD-2546,SCF-HD-2546-2,Melanie Hattori,61435090510,melbray79@hotmail.com,1,-Please park on the street and not my driveway,54 Mapleton Circuit,,Varsity Lakes,QLD,4227,08:00,17:00,Residential
SCF-HD-2548,SCF-HD-2548-1,Sue Smith,61403585305,suesmith27@me.com,1,-,83 T E Peters Drive,,Broadbeach Waters,QLD,4218,08:00,17:00,Residential
SCF-HD-2550,SCF-HD-2550-1,Brooke Godden,61420995644,brookegodden28@gmail.com,1,-,6 Rivett Court,,Mudgeeraba,QLD,4213,08:00,17:00,Residential
SCF-HD-2550,SCF-HD-2550-2,Brooke Godden,61420995644,brookegodden28@gmail.com,1,-,6 Rivett Court,,Mudgeeraba,QLD,4213,08:00,17:00,Residential
SCF-HD-2550,SCF-HD-2550-3,Brooke Godden,61420995644,brookegodden28@gmail.com,1,-,6 Rivett Court,,Mudgeeraba,QLD,4213,08:00,17:00,Residential
SCF-HD-2557,SCF-HD-2557-1,Rachael McGilvray,61401929276,rachael.mcgilvray@outlook.com,1,-,11 Agave Street,,Elanora,QLD,4221,08:00,17:00,Residential
SCF-HD-2557,SCF-HD-2557-2,Rachael McGilvray,61401929276,rachael.mcgilvray@outlook.com,1,-,11 Agave Street,,Elanora,QLD,4221,08:00,17:00,Residential
SCF-HD-2562,SCF-HD-2562-1,Libbette Winter,61405149701,libbette@gmail.com,1,Afternoon delivery if possible please - we are at work all day! -,18 Tallebudgera Drive,,Palm Beach,QLD,4221,08:00,17:00,Residential
SCF-HD-2562,SCF-HD-2562-2,Libbette Winter,61405149701,libbette@gmail.com,1,Afternoon delivery if possible please - we are at work all day! -,18 Tallebudgera Drive,,Palm Beach,QLD,4221,08:00,17:00,Residential
SCF-HD-2562,SCF-HD-2562-3,Libbette Winter,61405149701,libbette@gmail.com,1,Afternoon delivery if possible please - we are at work all day! -,18 Tallebudgera Drive,,Palm Beach,QLD,4221,08:00,17:00,Residential
SCF-HD-2581,SCF-HD-2581-1,Laura Bentley,61422651234,laura.b.85@hotmail.com,1,-,1 Wagner Street,,Mudgeeraba,QLD,4213,08:00,17:00,Residential
SCF-HD-2581,SCF-HD-2581-2,Laura Bentley,61422651234,laura.b.85@hotmail.com,1,-,1 Wagner Street,,Mudgeeraba,QLD,4213,08:00,17:00,Residential
SCF-HD-2581,SCF-HD-2581-3,Laura Bentley,61422651234,laura.b.85@hotmail.com,1,-,1 Wagner Street,,Mudgeeraba,QLD,4213,08:00,17:00,Residential
SCF-HD-2597,SCF-HD-2597-1,Tim,61432947519,accounts@highlinepalmbeach.com,1,-,11/17 Korina Avenue,,Coolangatta,QLD,4225,08:00,17:00,Residential
SCF-HD-2597,SCF-HD-2597-2,Tim,61432947519,accounts@highlinepalmbeach.com,1,-,11/17 Korina Avenue,,Coolangatta,QLD,4225,08:00,17:00,Residential
SCF-HD-2629,SCF-HD-2629-1,Jenna Jackson,61404692763,jennacosman@gmail.com,1,-,1/5 Banksia Broadway,,Burleigh Heads,QLD,4220,08:00,17:00,Residential
SCF-HD-2632,SCF-HD-2632-1,Melanie Beaver,61450224299,mellowangel@live.com,1,-,42 Savoy drive,,BROADBEACH WATERS,QLD,4218,08:00,17:00,Residential
SCF-HD-2632,SCF-HD-2632-2,Melanie Beaver,61450224299,mellowangel@live.com,1,-,42 Savoy drive,,BROADBEACH WATERS,QLD,4218,08:00,17:00,Residential
SCF-HD-2632,SCF-HD-2632-3,Melanie Beaver,61450224299,mellowangel@live.com,1,-,42 Savoy drive,,BROADBEACH WATERS,QLD,4218,08:00,17:00,Residential
SCF-HD-2643,SCF-HD-2643-1,Alexandra Chandler,61450717899,alexandrachandler13@gmail.com,1,-,7 Sun Court,,Mudgeeraba,QLD,4213,08:00,17:00,Residential
SCF-HD-2643,SCF-HD-2643-2,Alexandra Chandler,61450717899,alexandrachandler13@gmail.com,1,-,7 Sun Court,,Mudgeeraba,QLD,4213,08:00,17:00,Residential
SCF-HD-2643,SCF-HD-2643-3,Alexandra Chandler,61450717899,alexandrachandler13@gmail.com,1,-,7 Sun Court,,Mudgeeraba,QLD,4213,08:00,17:00,Residential
SCF-HD-2656,SCF-HD-2656-1,Libby,61478925633,libbybaumann@hotmail.com,1,-,25 Swanbourne Way,,Elanora,QLD,4221,08:00,17:00,Residential
SCF-HD-2656,SCF-HD-2656-2,Libby,61478925633,libbybaumann@hotmail.com,1,-,25 Swanbourne Way,,Elanora,QLD,4221,08:00,17:00,Residential
SCF-HD-2656,SCF-HD-2656-3,Libby,61478925633,libbybaumann@hotmail.com,1,-,25 Swanbourne Way,,Elanora,QLD,4221,08:00,17:00,Residential
